Unico (3,6) '4'
Exclusivo (0,6) '3' Columna
Exclusivo (2,8) '4' Fila
Exclusivo (4,8) '9' Columna
Descubiertos [(6,0),(6,2)] "79" [(6,3)]
Descubiertos [(6,0),(6,2)] "79" [(7,0),(8,0),(8,1),(8,2)]
Descubiertos [(4,0),(7,0),(8,0)] "368" [(0,0),(1,0)]
Exclusivo (1,1) '3' Fila
Exclusivo (0,1) '2' Columna
Exclusivo (3,1) '9' Columna
Exclusivo (5,4) '9' Fila
Exclusivo (8,5) '9' Fila
Exclusivo (4,5) '1' Columna
Exclusivo (3,5) '3' Columna
Unico (3,2) '5'
Unico (3,4) '7'
Unico (4,1) '8'
Unico (5,2) '6'
Unico (4,0) '3'
Unico (5,6) '1'
Unico (5,7) '5'
Unico (4,7) '6'
Unico (5,3) '8'
Unico (6,6) '2'
Unico (2,6) '8'
Unico (1,7) '7'
Unico (0,7) '1'
Unico (0,8) '6'
Unico (0,5) '7'
Unico (1,0) '4'
Unico (0,0) '9'
Unico (0,2) '8'
Unico (1,8) '2'
Unico (1,4) '8'
Unico (1,5) '6'
Unico (2,2) '7'
Unico (2,5) '2'
Unico (6,0) '7'
Unico (6,2) '9'
Unico (6,3) '1'
Unico (7,1) '1'
Unico (7,8) '7'
Unico (7,3) '4'
Unico (0,3) '5'
Unico (0,4) '4'
Unico (4,3) '2'
Unico (4,4) '5'
Unico (7,4) '3'
Unico (7,7) '8'
Unico (7,0) '6'
Unico (8,0) '8'
Unico (8,1) '5'
Unico (8,2) '3'
Unico (8,3) '7'
Unico (8,4) '2'
Unico (8,6) '6'
Unico (8,7) '4'
Unico (8,8) '1'

9 2 8 5 4 7 3 1 6
4 3 1 9 8 6 5 7 2
5 6 7 3 1 2 8 9 4
1 9 5 6 7 3 4 2 8
3 8 4 2 5 1 7 6 9
2 7 6 8 9 4 1 5 3
7 4 9 1 6 8 2 3 5
6 1 2 4 3 5 9 8 7
8 5 3 7 2 9 6 4 1
